<svg width="500" height="788" viewBox="0 0 500 788" fill="none" xmlns="http://www.w3.org/2000/svg">
<g clip-path="url(#clip0_67_2444)">
<path d="M17.7639 1991.07V217.964H89.5475V198.523C89.5475 110.002 161.524 37.99 249.994 37.99C338.464 37.99 410.446 110.002 410.446 198.523V217.964H482.23V1991.07H17.7639V1991.07Z" fill="#2D2D2D"/>
<path d="M494.584 235.779H380.383V187.638C380.383 115.704 321.892 57.1896 250.006 57.1896C178.12 57.1896 119.623 115.71 119.623 187.638V235.779H5.41582V216.513H100.355V187.638C100.355 105.083 167.481 37.9237 249.994 37.9237C332.507 37.9237 399.627 105.09 399.627 187.638V216.513H494.572V235.779H494.584Z" fill="#848484"/>
<path d="M428.595 187.644C428.595 88.9603 348.634 8.95264 250 8.95264C151.366 8.95264 71.3985 88.9603 71.3985 187.644H0V226.152H109.983V187.644C109.983 110.406 172.789 47.5627 249.994 47.5627C327.199 47.5627 389.999 110.406 389.999 187.644V226.152H499.988V187.644H428.583H428.595Z" fill="#AAAAAA"/>
<path d="M279.402 45.299L278.848 55.4076C269.551 53.3726 259.899 52.3069 250 52.3069C240.101 52.3069 230.768 53.3425 221.609 55.3112L221.055 45.2087C230.413 43.3062 240.089 42.3067 250 42.3067C259.911 42.3067 269.906 43.3363 279.402 45.299Z" fill="#A8A8A8"/>
<path d="M282.308 3.0705L280.617 37.6227C270.706 35.4493 260.465 34.3114 250 34.3114C239.535 34.3114 229.612 35.4192 219.846 37.5203L218.155 2.98621C228.505 1.02349 239.15 0.00601196 250 0.00601196C260.85 0.00601196 271.814 1.05962 282.308 3.07652V3.0705Z" fill="#A5A5A5"/>
<path d="M279.955 37.6167L279.402 47.7072C269.906 45.7445 260.067 44.715 250 44.715C239.933 44.715 230.413 45.7144 221.056 47.6169L220.502 37.5264C230.058 35.6841 239.915 34.7148 250 34.7148C260.085 34.7148 270.261 35.7142 279.955 37.6167Z" fill="#848484"/>
<path d="M375.376 345.07C358.045 292.378 308.467 254.34 250 254.34C191.533 254.34 141.955 292.384 124.624 345.07H17.7639V1983.45H482.23V345.07H375.376Z" fill="#2D2D2D"/>
<path d="M482.23 351.091H375.376C358.045 298.399 308.467 260.361 250 260.361C191.533 260.361 141.955 298.405 124.624 351.091H17.7639" stroke="#595959" stroke-width="10" stroke-miterlimit="10"/>
<path d="M126.05 470.618C130.834 466.404 120.779 469.498 123.45 466.518C126.435 462.586 139.096 459.552 135.377 454.061C132.453 453.116 127.308 459.227 125.262 457.162C128.024 452.628 133.355 449.69 136.713 445.398C141.726 440.172 143.591 435.133 135.161 440.84C149.765 419.009 122.458 417.438 128.349 424.59C128.945 425.319 129.787 425.795 130.714 426.084C138.579 428.564 131.297 441.304 127.446 447.366C121.332 454.706 114.653 463.225 114.743 472.852C114.635 475.416 115.555 480.251 118.366 479.607C119.328 479.384 120.159 478.541 120.52 477.584C121.597 474.718 122.873 471.918 126.056 470.612L126.05 470.618Z" fill="#AAAAAA"/>
<path d="M125.677 433.272C127.747 415.301 100.927 423.212 115.549 427.053C118.775 426.951 119.413 429.028 117.92 431.147C117.331 431.984 117.282 432.995 117.728 433.712C120.466 438.095 117.758 438.528 114.869 439.269C113.124 439.714 112.48 442.074 113.913 442.785C115.736 443.688 116.265 444.398 115.579 448.3C115.375 449.474 115.868 450.569 116.891 450.9C121.266 452.315 125.809 436.698 125.677 433.272Z" fill="#AAAAAA"/>
<path d="M145.126 472.797C145.74 472.605 146.227 472.021 146.389 471.401C147.581 466.933 151.715 468.095 152.636 471.25C153.003 472.496 152.509 473.989 151.432 475.067C149.705 476.813 147.611 478.493 146.522 480.468C145.746 481.895 145.956 483.412 146.853 484.249C146.853 484.249 146.865 484.261 146.871 484.267C146.871 484.267 146.883 484.279 146.889 484.285C147.761 485.14 149.29 485.29 150.68 484.453C152.612 483.285 154.2 481.118 155.873 479.318C156.902 478.198 158.376 477.644 159.634 477.957C162.829 478.74 164.159 482.828 159.748 484.206C159.135 484.399 158.569 484.911 158.407 485.531C157.42 489.258 171.368 483.562 162.432 476.735C161.301 475.868 159.833 475.477 158.274 475.507C157.155 475.525 156.445 475.266 156 474.79C156 474.79 155.987 474.778 155.981 474.772C155.981 474.772 155.969 474.76 155.963 474.754C155.47 474.327 155.175 473.628 155.151 472.508C155.115 470.949 154.664 469.498 153.749 468.402C146.564 459.751 141.455 473.935 145.138 472.791L145.126 472.797Z" fill="#AAAAAA"/>
<path d="M139.174 478.595C138.085 477.042 133.704 476.645 134.384 474.417C134.715 473.327 134.794 472.207 134.288 471.371C133.692 470.377 132.699 469.582 131.634 469.504C130.684 469.438 130.004 470.744 130.69 471.31C132.693 472.972 133.024 473.965 129.053 476.867C126.676 478.36 126.086 481.527 126.959 483.002C127.819 484.465 130.407 482.635 129.618 481.124C127.121 476.325 138.386 476.362 136.797 484.989C135.468 490.667 127.488 493.267 124.419 489.216C123.559 488.644 125.304 484.495 122.235 487.446C121.212 489.041 113.967 492.202 117.018 493.189C119.346 493.49 120.803 489.956 123.842 492.37C133.981 497.638 143.988 484.58 139.174 478.607V478.595Z" fill="#AAAAAA"/>
<path d="M159.754 470.823C161.951 475.007 168.348 464.694 167.355 462.93L167.367 462.918C167.367 462.918 167.349 462.918 167.343 462.906C167.343 462.9 167.337 462.888 167.331 462.882L167.319 462.894C165.519 461.972 155.488 468.794 159.754 470.817V470.823Z" fill="#AAAAAA"/>
<path d="M205.638 497.988C205.969 498.903 206.481 499.722 207.227 500.287C214.617 505.875 211.903 478.643 190.715 494.158C196.064 485.489 191.106 487.566 186.099 492.798C181.959 496.338 179.245 501.787 174.835 504.737C172.686 502.774 178.577 497.38 177.512 494.496C171.874 491.004 169.377 503.785 165.573 506.934C162.709 509.734 165.381 499.547 161.373 504.508C160.206 507.741 157.462 509.138 154.646 510.336C153.701 510.733 152.894 511.6 152.714 512.569C152.184 515.405 157.053 516.128 159.61 515.911C169.226 515.598 177.452 508.566 184.529 502.148C190.42 498.048 202.84 490.233 205.65 497.994L205.638 497.988Z" fill="#AAAAAA"/>
<path d="M198.676 503.316C195.252 503.328 179.847 508.518 181.436 512.834C181.809 513.846 182.928 514.291 184.09 514.038C187.959 513.196 188.687 513.695 189.668 515.477C190.432 516.874 192.767 516.14 193.14 514.376C193.754 511.462 194.079 508.734 198.568 511.287C199.302 511.702 200.313 511.606 201.125 510.986C203.183 509.403 205.277 509.951 205.314 513.184C209.76 527.645 216.536 500.498 198.676 503.322V503.316Z" fill="#AAAAAA"/>
<path d="M162.246 498.885C162.125 497.819 161.289 496.868 160.272 496.308C159.411 495.832 158.292 495.959 157.221 496.338C155.031 497.109 154.453 492.744 152.852 491.726C146.684 487.163 134.059 497.711 139.746 507.633C142.285 510.565 138.813 512.166 139.217 514.484C140.33 517.494 143.182 510.119 144.735 509.029C147.551 505.838 143.483 507.759 142.875 506.922C138.699 504.026 140.962 495.935 146.576 494.369C155.127 492.419 155.632 503.683 150.734 501.383C149.188 500.661 147.473 503.322 148.965 504.123C150.475 504.929 153.611 504.207 155.007 501.775C157.733 497.687 158.744 497.976 160.483 499.908C161.078 500.57 162.354 499.836 162.246 498.885Z" fill="#AAAAAA"/>
<path d="M132.85 512.521C130.473 510.023 131.664 505.17 129.558 502.359H129.564C129.564 502.359 129.552 502.34 129.546 502.34C129.546 502.334 129.54 502.328 129.534 502.322H129.528C126.634 500.342 121.838 501.738 119.244 499.469C118.805 495.254 115.032 498.15 116.362 500.209C116.699 500.739 117.294 501.016 117.944 501.1C125.135 502.07 124.75 505.429 117.656 504.526C117 504.442 116.542 505.375 117.084 505.688C118.925 506.754 123.204 506.976 117.114 508.933C116.723 509.059 116.627 509.601 116.982 509.686C121.597 510.836 117.644 512.202 118.636 513.701L118.624 513.713C118.624 513.713 118.642 513.719 118.648 513.725C118.648 513.731 118.654 513.737 118.66 513.75L118.673 513.737C120.213 514.665 121.411 510.655 122.752 515.225C122.855 515.574 123.39 515.459 123.499 515.056C125.202 508.891 125.599 513.153 126.742 514.954C127.079 515.483 127.988 514.99 127.873 514.333C126.676 507.283 130.016 506.754 131.279 513.906C131.388 514.55 131.695 515.14 132.236 515.453C134.348 516.7 137.08 512.804 132.856 512.539L132.85 512.521Z" fill="#AAAAAA"/>
<path d="M374.004 470.618C369.22 466.404 379.275 469.498 376.604 466.518C373.619 462.586 360.958 459.552 364.677 454.061C367.601 453.116 372.746 459.227 374.792 457.162C372.03 452.628 366.699 449.69 363.341 445.398C358.328 440.172 356.463 435.133 364.893 440.84C350.289 419.009 377.597 417.438 371.705 424.59C371.11 425.319 370.267 425.795 369.34 426.084C361.476 428.564 368.757 441.304 372.608 447.366C378.722 454.706 385.401 463.225 385.311 472.852C385.419 475.416 384.499 480.251 381.688 479.607C380.726 479.384 379.895 478.541 379.534 477.584C378.457 474.718 377.181 471.918 373.998 470.612L374.004 470.618Z" fill="#AAAAAA"/>
<path d="M374.377 433.272C372.307 415.301 399.127 423.212 384.505 427.053C381.279 426.951 380.641 429.028 382.134 431.147C382.724 431.984 382.772 432.995 382.326 433.712C379.588 438.095 382.296 438.528 385.185 439.269C386.93 439.714 387.574 442.074 386.142 442.785C384.318 443.688 383.789 444.398 384.475 448.3C384.679 449.474 384.186 450.569 383.163 450.9C378.788 452.315 374.245 436.698 374.377 433.272Z" fill="#AAAAAA"/>
<path d="M354.934 472.797C354.321 472.605 353.833 472.021 353.671 471.401C352.479 466.933 348.345 468.095 347.424 471.25C347.057 472.496 347.551 473.989 348.628 475.067C350.355 476.813 352.449 478.493 353.538 480.468C354.315 481.895 354.104 483.412 353.207 484.249C353.207 484.249 353.195 484.261 353.189 484.267C353.189 484.267 353.177 484.279 353.171 484.285C352.299 485.14 350.77 485.29 349.38 484.453C347.449 483.285 345.86 481.118 344.187 479.318C343.158 478.198 341.684 477.644 340.426 477.957C337.231 478.74 335.901 482.828 340.312 484.206C340.926 484.399 341.491 484.911 341.654 485.531C342.641 489.258 328.692 483.562 337.628 476.735C338.759 475.868 340.227 475.477 341.786 475.507C342.905 475.525 343.615 475.266 344.061 474.79C344.061 474.79 344.073 474.778 344.079 474.772C344.079 474.772 344.091 474.76 344.097 474.754C344.59 474.327 344.885 473.628 344.909 472.508C344.945 470.949 345.397 469.498 346.311 468.402C353.496 459.751 358.605 473.935 354.922 472.791L354.934 472.797Z" fill="#AAAAAA"/>
<path d="M360.88 478.595C361.969 477.042 366.35 476.645 365.67 474.417C365.339 473.327 365.261 472.207 365.766 471.371C366.362 470.377 367.355 469.582 368.42 469.504C369.371 469.438 370.051 470.744 369.365 471.31C367.361 472.972 367.03 473.965 371.001 476.867C373.378 478.36 373.968 481.527 373.095 483.002C372.235 484.465 369.647 482.635 370.436 481.124C372.933 476.325 361.668 476.362 363.257 484.989C364.587 490.667 372.566 493.267 375.635 489.216C376.495 488.644 374.75 484.495 377.819 487.446C378.842 489.041 386.087 492.202 383.036 493.189C380.708 493.49 379.251 489.956 376.213 492.37C366.073 497.638 356.066 484.58 360.88 478.607V478.595Z" fill="#AAAAAA"/>
<path d="M340.3 470.823C338.103 475.007 331.707 464.694 332.699 462.93L332.687 462.918C332.687 462.918 332.706 462.918 332.712 462.906C332.712 462.9 332.718 462.888 332.724 462.882L332.736 462.894C334.535 461.972 344.566 468.794 340.3 470.817V470.823Z" fill="#AAAAAA"/>
<path d="M294.416 497.988C294.085 498.903 293.573 499.722 292.827 500.287C285.437 505.875 288.151 478.643 309.339 494.158C303.99 485.489 308.948 487.566 313.955 492.798C318.095 496.338 320.809 501.787 325.22 504.737C327.368 502.774 321.477 497.38 322.542 494.496C328.18 491.004 330.678 503.785 334.481 506.934C337.345 509.734 334.673 499.547 338.681 504.508C339.848 507.741 342.592 509.138 345.409 510.336C346.353 510.733 347.16 511.6 347.34 512.569C347.87 515.405 343.002 516.128 340.444 515.911C330.828 515.598 322.602 508.566 315.525 502.148C309.634 498.048 297.214 490.233 294.404 497.994L294.416 497.988Z" fill="#AAAAAA"/>
<path d="M301.378 503.316C304.802 503.328 320.207 508.518 318.618 512.834C318.245 513.846 317.126 514.291 315.965 514.038C312.095 513.196 311.367 513.695 310.386 515.477C309.622 516.874 307.287 516.14 306.914 514.376C306.3 511.462 305.975 508.734 301.486 511.287C300.752 511.702 299.741 511.606 298.929 510.986C296.871 509.403 294.777 509.951 294.741 513.184C290.294 527.645 283.518 500.498 301.378 503.322V503.316Z" fill="#AAAAAA"/>
<path d="M337.814 498.885C337.935 497.819 338.771 496.868 339.788 496.308C340.649 495.832 341.768 495.959 342.839 496.338C345.029 497.109 345.607 492.744 347.208 491.726C353.376 487.163 366.001 497.711 360.314 507.633C357.775 510.565 361.247 512.166 360.844 514.484C359.73 517.494 356.878 510.119 355.326 509.029C352.509 505.838 356.577 507.759 357.185 506.922C361.361 504.026 359.099 495.935 353.484 494.369C344.933 492.419 344.428 503.683 349.326 501.383C350.873 500.661 352.588 503.322 351.095 504.123C349.585 504.929 346.45 504.207 345.054 501.775C342.328 497.687 341.317 497.976 339.578 499.908C338.982 500.57 337.706 499.836 337.814 498.885Z" fill="#AAAAAA"/>
<path d="M367.21 512.521C369.587 510.023 368.396 505.17 370.502 502.359H370.496C370.496 502.359 370.508 502.34 370.514 502.34C370.514 502.334 370.52 502.328 370.526 502.322H370.532C373.426 500.342 378.222 501.738 380.816 499.469C381.255 495.254 385.028 498.15 383.698 500.209C383.361 500.739 382.766 501.016 382.116 501.1C374.925 502.07 375.31 505.429 382.405 504.526C383.061 504.442 383.518 505.375 382.976 505.688C381.135 506.754 376.856 506.976 382.946 508.933C383.337 509.059 383.434 509.601 383.079 509.686C378.463 510.836 382.417 512.202 381.424 513.701L381.436 513.713C381.436 513.713 381.418 513.719 381.412 513.725C381.412 513.731 381.406 513.737 381.4 513.75L381.388 513.737C379.847 514.665 378.65 510.655 377.308 515.225C377.205 515.574 376.67 515.459 376.562 515.056C374.859 508.891 374.461 513.153 373.318 514.954C372.981 515.483 372.072 514.99 372.187 514.333C373.384 507.283 370.045 506.754 368.781 513.906C368.673 514.55 368.366 515.14 367.824 515.453C365.712 516.7 362.98 512.804 367.204 512.539L367.21 512.521Z" fill="#AAAAAA"/>
<path d="M395.21 393.645V524.382H104.79V393.645H156.541C156.601 445.235 198.417 487.042 250 487.042C301.583 487.042 343.393 445.235 343.453 393.645H395.21Z" stroke="#AAAAAA" stroke-width="2" stroke-miterlimit="10"/>
<path d="M343.453 393.536V393.645C343.393 445.235 301.577 487.042 250 487.042C198.423 487.042 156.601 445.235 156.541 393.645V393.536C156.541 341.898 198.381 300.036 250 300.036C301.619 300.036 343.453 341.898 343.453 393.536Z" stroke="#AAAAAA" stroke-width="2" stroke-miterlimit="10"/>
<path d="M469.876 555.016C468.624 556.268 467.012 557.171 465.206 557.539C465.152 557.551 465.146 557.623 465.206 557.641C469.497 559.014 472.602 563.042 472.602 567.798V570.953C472.602 574.655 470.718 577.912 467.854 579.827C465.622 581.32 464.274 583.819 464.274 586.504V1985.07C464.274 1985.1 464.25 1985.12 464.219 1985.12H458.491C458.461 1985.12 458.437 1985.1 458.437 1985.07V591.489C458.437 590.05 457.853 588.743 456.908 587.804C455.963 586.859 454.658 586.275 453.219 586.275C450.337 586.275 448.002 588.611 448.002 591.489V1985.07C448.002 1985.1 447.978 1985.12 447.948 1985.12H445.054C445.023 1985.12 444.999 1985.1 444.999 1985.07V591.489C444.999 590.05 444.416 588.743 443.471 587.804C442.526 586.859 441.22 586.275 439.782 586.275C436.9 586.275 434.565 588.611 434.565 591.489V1985.07C434.565 1985.1 434.541 1985.12 434.511 1985.12H431.61C431.58 1985.12 431.556 1985.1 431.556 1985.07V591.489C431.556 590.05 430.972 588.743 430.028 587.804C429.113 586.889 427.873 586.317 426.489 586.275C423.541 586.191 421.122 588.774 421.122 591.73V1985.07C421.122 1985.1 421.098 1985.12 421.067 1985.12H415.086C415.056 1985.12 415.032 1985.1 415.032 1985.07V586.504C415.032 583.819 413.684 581.32 411.451 579.827C408.593 577.912 406.704 574.655 406.704 570.953V567.798C406.704 563.042 409.809 559.02 414.099 557.641C414.153 557.623 414.147 557.551 414.099 557.539C409.881 556.666 406.71 552.927 406.71 548.448C406.71 545.877 407.751 543.553 409.429 541.873C411.108 540.193 413.431 539.152 415.995 539.152H416.121C407.895 528.176 403.021 514.54 403.021 499.765C403.021 492.137 404.321 484.81 406.716 477.995C408.015 474.274 409.646 470.71 411.566 467.332C414.623 461.956 416.578 456.001 416.903 449.824C416.951 448.909 416.976 447.994 416.976 447.067C416.976 442.63 416.416 438.325 415.363 434.213C414.863 432.244 414.25 430.318 413.527 428.451C412.486 425.754 410.862 423.34 409.032 421.1C407.817 419.619 406.944 417.849 406.535 415.898C406.361 415.079 406.27 414.231 406.27 413.364V406.115C406.27 400.678 409.821 396.072 414.731 394.495C414.785 394.477 414.779 394.405 414.725 394.393C410.188 393.7 406.71 389.781 406.71 385.049V384.772C406.71 379.522 410.964 375.265 416.211 375.265H463.124C468.372 375.265 472.626 379.522 472.626 384.772V385.049C472.626 389.781 469.154 393.7 464.611 394.393C464.55 394.399 464.544 394.477 464.605 394.495C469.515 396.072 473.065 400.684 473.065 406.115V413.364C473.065 414.2 472.981 415.013 472.825 415.802C472.433 417.728 471.591 419.493 470.412 420.968C468.071 423.912 466.127 427.157 464.942 430.727C464.562 431.871 464.219 433.033 463.919 434.213C462.866 438.325 462.306 442.63 462.306 447.067C462.306 447.976 462.33 448.885 462.378 449.782C462.697 455.971 464.659 461.938 467.716 467.32C469.635 470.704 471.266 474.274 472.572 477.995C474.961 484.804 476.261 492.131 476.261 499.759C476.261 514.534 471.386 528.17 463.16 539.146H463.341C468.468 539.146 472.626 543.306 472.626 548.442C472.626 551.006 471.585 553.33 469.906 555.01L469.876 555.016Z" fill="#595959"/>
<path d="M90.7148 555.016C89.4631 556.268 87.8504 557.171 86.0451 557.539C85.991 557.551 85.9849 557.623 86.0451 557.641C90.3356 559.014 93.4407 563.042 93.4407 567.798V570.953C93.4407 574.655 91.5572 577.912 88.6928 579.827C86.4603 581.32 85.1124 583.819 85.1124 586.504V1985.07C85.1124 1985.1 85.0883 1985.12 85.0582 1985.12H79.3295C79.2994 1985.12 79.2754 1985.1 79.2754 1985.07V591.489C79.2754 590.05 78.6916 588.743 77.7469 587.804C76.8021 586.859 75.4963 586.275 74.0581 586.275C71.1757 586.275 68.8409 588.611 68.8409 591.489V1985.07C68.8409 1985.1 68.8168 1985.12 68.7867 1985.12H65.8923C65.8622 1985.12 65.8381 1985.1 65.8381 1985.07V591.489C65.8381 590.05 65.2544 588.743 64.3097 587.804C63.3649 586.859 62.0591 586.275 60.6209 586.275C57.7385 586.275 55.4036 588.611 55.4036 591.489V1985.07C55.4036 1985.1 55.3796 1985.12 55.3495 1985.12H52.449C52.4189 1985.12 52.3949 1985.1 52.3949 1985.07V591.489C52.3949 590.05 51.8112 588.743 50.8664 587.804C49.9517 586.889 48.7121 586.317 47.3281 586.275C44.3795 586.191 41.9604 588.774 41.9604 591.73V1985.07C41.9604 1985.1 41.9363 1985.12 41.9062 1985.12H35.9248C35.8947 1985.12 35.8706 1985.1 35.8706 1985.07V586.504C35.8706 583.819 34.5227 581.32 32.2902 579.827C29.4318 577.912 27.5423 574.655 27.5423 570.953V567.798C27.5423 563.042 30.6474 559.02 34.9379 557.641C34.992 557.623 34.986 557.551 34.9379 557.539C30.7196 556.666 27.5483 552.927 27.5483 548.448C27.5483 545.877 28.5894 543.553 30.2683 541.873C31.9472 540.193 34.2699 539.152 36.8334 539.152H36.9598C28.7338 528.176 23.8595 514.54 23.8595 499.765C23.8595 492.137 25.1593 484.81 27.5543 477.995C28.8541 474.274 30.4849 470.71 32.4045 467.332C35.4614 461.956 37.4171 456.001 37.7421 449.824C37.7902 448.909 37.8143 447.994 37.8143 447.067C37.8143 442.63 37.2547 438.325 36.2016 434.213C35.7021 432.244 35.0883 430.318 34.3662 428.451C33.3252 425.754 31.7004 423.34 29.8711 421.1C28.6555 419.619 27.783 417.849 27.3738 415.898C27.1993 415.079 27.109 414.231 27.109 413.364V406.115C27.109 400.678 30.6594 396.072 35.5697 394.495C35.6239 394.477 35.6179 394.405 35.5637 394.393C31.0265 393.7 27.5483 389.781 27.5483 385.049V384.772C27.5483 379.522 31.8027 375.265 37.0501 375.265H83.963C89.2104 375.265 93.4648 379.522 93.4648 384.772V385.049C93.4648 389.781 89.9926 393.7 85.4494 394.393C85.3892 394.399 85.3832 394.477 85.4434 394.495C90.3537 396.072 93.9041 400.684 93.9041 406.115V413.364C93.9041 414.2 93.8198 415.013 93.6634 415.802C93.2722 417.728 92.4298 419.493 91.2503 420.968C88.9095 423.912 86.9658 427.157 85.7803 430.727C85.4012 431.871 85.0582 433.033 84.7574 434.213C83.7043 438.325 83.1446 442.63 83.1446 447.067C83.1446 447.976 83.1687 448.885 83.2169 449.782C83.5358 455.971 85.4975 461.938 88.5544 467.32C90.4741 470.704 92.1048 474.274 93.4106 477.995C95.7996 484.804 97.0994 492.131 97.0994 499.759C97.0994 514.534 92.2252 528.17 83.9991 539.146H84.1797C89.3066 539.146 93.4648 543.306 93.4648 548.442C93.4648 551.006 92.4237 553.33 90.7448 555.01L90.7148 555.016Z" fill="#595959"/>
</g>
<defs>
<clipPath id="clip0_67_2444">
<rect width="500" height="1991.07" fill="white"/>
</clipPath>
</defs>
</svg>
